<svg width="14" height="14" viewBox="0 0 14 14" fill="none" xmlns="http://www.w3.org/2000/svg">
  <rect x="12.2635" y="0.949738" width="2" height="16" rx="1" transform="rotate(45 12.2635 0.949738)" fill="currentColor" />
  <rect x="13.6777" y="12.2635" width="2" height="16" rx="1" transform="rotate(135 13.6777 12.2635)" fill="currentColor" />
</svg>